…
r_squared = 
  tibble(strap_number = 1:5000) |> 
  mutate(
    strap_sample = map(strap_number, \(i) boot_sample(weather_df)),
    models = map(strap_sample, \(df) lm(tmax ~ tmin + prcp, data = df)),
    results = map(models, broom::glance)
  ) |> 
  select(strap_number, results) |> 
  unnest(results)

r_squared
```

    ## # A tibble: 5,000 × 13
    ##    strap_number r.squared adj.r.squared sigma statistic   p.value    df logLik
    ##           <int>     <dbl>         <dbl> <dbl>     <dbl>     <dbl> <dbl>  <dbl>
    ##  1            1     0.894         0.894  3.37     1533. 1.89e-177     2  -960.
    ##  2            2     0.919         0.919  3.08     2054. 2.70e-198     2  -927.
    ##  3            3     0.934         0.934  2.68     2559. 2.63e-214     2  -877.
    ##  4            4     0.927         0.926  2.73     2289. 3.61e-206     2  -883.
    ##  5            5     0.937         0.936  2.61     2683. 8.48e-218     2  -867.
    ##  6            6     0.916         0.915  3.02     1971. 2.56e-195     2  -920.
    ##  7            7     0.928         0.928  2.65     2343. 7.42e-208     2  -871.
    ##  8            8     0.933         0.933  2.55     2525. 2.40e-213     2  -858.
    ##  9            9     0.923         0.923  2.89     2177. 1.58e-202     2  -903.
    ## 10           10     0.894         0.894  3.27     1530. 2.60e-177     2  -949.
    ## # ℹ 4,990 more rows
    ## # ℹ 5 more variables: AIC <dbl>, BIC <dbl>, deviance <dbl>, df.residual <int>,
    ## #   nobs <int>
…
